GBIF And Spatial Data • compbio2020
…
#Get GBIF ids for our vector of species.

ids <-c()
  for (ant in ants){
   print(ant)
   raw <- name_suggest(ant)
   print(raw)
   ids[ant] <- c(raw$data$key)
}

## [1] "Martialis"
## Records returned [72] 
## No. unique hierarchies [0] 
## Args [q=Martialis, limit=100, fields1=key, fields2=canonicalName, fields3=rank] 
## # A tibble: 72 x 3
##        key canonicalName         rank    
##      <int> <chr>                 <chr>   
##  1 7744356 Martialis             GENUS   
##  2 9599316 ? martialis           UNRANKED
##  3 7437085 Martialis heureka     SPECIES 
##  4 6349179 Hendersonia martialis SPECIES 
##  5 8655352 Electrapis martialis  SPECIES 
##  6 7395874 Cantharis martialis   SPECIES 
##  7 5510493 Globulina martialis   SPECIES 
##  8 5025232 Agathis martialis     SPECIES 
##  9 8005896 Scopula martialis     SPECIES 
## 10 5484304 Nectria martialis     SPECIES 
## # … with 62 more rows

## Warning in ids[ant] <- c(raw$data$key): number of items to replace is not a
## multiple of replacement length

## [1] "Atta"
## Records returned [100] 
## No. unique hierarchies [0] 
## Args [q=Atta, limit=100, fields1=key, fields2=canonicalName, fields3=rank] 
## # A tibble: 100 x 3
##        key canonicalName    rank   
##      <int> <chr>            <chr>  
##  1 1323108 Atta             GENUS  
##  2 6006602 Atta             GENUS  
##  3 5035739 Atta robusta     SPECIES
##  4 5035737 Atta goiana      SPECIES
##  5 8368352 Atta penetrans   SPECIES
##  6 5035740 Atta silvae      SPECIES
##  7 5035749 Atta domicola    SPECIES
##  8 8772445 Atta turrifex    SPECIES
##  9 5035735 Atta bisphaerica SPECIES
## 10 5801287 Atta spinoda     SPECIES
## # … with 90 more rows

## Warning in ids[ant] <- c(raw$data$key): number of items to replace is not a
## multiple of replacement length

## [1] "Ectatomma"
## Records returned [90] 
## No. unique hierarchies [0] 
## Args [q=Ectatomma, limit=100, fields1=key, fields2=canonicalName, fields3=rank] 
## # A tibble: 90 x 3
##        key canonicalName         rank   
##      <int> <chr>                 <chr>  
##  1 1314135 Ectatomma             GENUS  
##  2 7570313 Ectatomma parasiticum SPECIES
##  3 9175376 Ectatomma rimulosum   SPECIES
##  4 4673127 Ectatomma socrus      SPECIES
##  5 1314147 Ectatomma edentatum   SPECIES
##  6 4673125 Ectatomma rothneyi    SPECIES
##  7 1314136 Ectatomma gibbum      SPECIES
##  8 1314144 Ectatomma planidens   SPECIES
##  9 1314149 Ectatomma opaciventre SPECIES
## 10 4673119 Ectatomma punctata    SPECIES
## # … with 80 more rows
…
## Warning in ids[ant] <- c(raw$data$key): number of items to replace is not a
## multiple of replacement length

## [1] "Aenictus"
## Records returned [100] 
## No. unique hierarchies [0] 
## Args [q=Aenictus, limit=100, fields1=key, fields2=canonicalName, fields3=rank] 
## # A tibble: 100 x 3
##        key canonicalName          rank   
##      <int> <chr>                  <chr>  
##  1 1317499 Aenictus               GENUS  
##  2 1317525 Aenictus binghami      SPECIES
##  3 1317542 Aenictus eugenii       SPECIES
##  4 1317621 Aenictus furculatus    SPECIES
##  5 1317629 Aenictus obscurus      SPECIES
##  6 1317535 Aenictus porizonoides  SPECIES
##  7 1317552 Aenictus vagans        SPECIES
##  8 8602349 Aenictus subterraneus  SPECIES
##  9 1317599 Aenictus steindachneri SPECIES
## 10 7485901 Aenictus levior        SPECIES
## # … with 90 more rows
…
